<?xml version="1.0" encoding="UTF-8"?>
<svg width="61px" height="66px" viewBox="0 0 61 66" version="1.1" xmlns="http://www.w3.org/2000/svg" xmlns:xlink="http://www.w3.org/1999/xlink">
    <!-- Generator: Sketch 52.5 (67469) - http://www.bohemiancoding.com/sketch -->
    <title>Group 10 Copy</title>
    <desc>Created with Sketch.</desc>
    <g id="GEMS-Sales-Page" stroke="none" stroke-width="1" fill="none" fill-rule="evenodd">
        <g id="1---GEMS-Sales-Page" transform="translate(-291.000000, -1191.000000)">
            <g id="Group" transform="translate(135.000000, 1160.000000)">
                <g id="Group-10-Copy" transform="translate(155.000000, 32.000000)">
                    <rect id="Rectangle-4" x="0" y="0" width="64" height="64"></rect>
                    <g id="Page-1" transform="translate(2.000000, 0.000000)" stroke="#AE946C" stroke-width="1.5">
                        <path d="M34.5762712,5.28813559 C34.5762712,2.592 32.3910508,0.406779661 29.6949153,0.406779661 C26.9987797,0.406779661 24.8135593,2.592 24.8135593,5.28813559 C24.8135593,7.98427119 26.9987797,10.1694915 29.6949153,10.1694915 C32.3910508,10.1694915 34.5762712,7.98427119 34.5762712,5.28813559 Z" id="Stroke-1"></path>
                        <path d="M19.9322034,24.8135593 L19.9322034,19.9322034 C19.9322034,19.9322034 19.9322034,15.0508475 29.6949153,15.0508475 C39.4576271,15.0508475 39.4576271,19.9322034 39.4576271,19.9322034 L39.4576271,24.8135593 L19.9322034,24.8135593 Z" id="Stroke-3" stroke-linecap="round" stroke-linejoin="round"></path>
                        <path d="M54.1016949,44.3389831 C54.1016949,41.6428475 51.9164746,39.4576271 49.220339,39.4576271 C46.5242034,39.4576271 44.3389831,41.6428475 44.3389831,44.3389831 C44.3389831,47.0351186 46.5242034,49.220339 49.220339,49.220339 C51.9164746,49.220339 54.1016949,47.0351186 54.1016949,44.3389831 Z" id="Stroke-5"></path>
                        <path d="M39.4576271,63.8644068 L39.4576271,58.9830508 C39.4576271,58.9830508 39.4576271,54.1016949 49.220339,54.1016949 C58.9830508,54.1016949 58.9830508,58.9830508 58.9830508,58.9830508 L58.9830508,63.8644068 L39.4576271,63.8644068 Z" id="Stroke-7" stroke-linecap="round" stroke-linejoin="round"></path>
                        <path d="M15.0508475,44.3389831 C15.0508475,41.6428475 12.8656271,39.4576271 10.1694915,39.4576271 C7.47335593,39.4576271 5.28813559,41.6428475 5.28813559,44.3389831 C5.28813559,47.0351186 7.47335593,49.220339 10.1694915,49.220339 C12.8656271,49.220339 15.0508475,47.0351186 15.0508475,44.3389831 Z" id="Stroke-9"></path>
                        <path d="M0.406779661,63.8644068 L0.406779661,58.9830508 C0.406779661,58.9830508 0.406779661,54.1016949 10.1694915,54.1016949 C19.9322034,54.1016949 19.9322034,58.9830508 19.9322034,58.9830508 L19.9322034,63.8644068 L0.406779661,63.8644068 Z" id="Stroke-11" stroke-linecap="round" stroke-linejoin="round"></path>
                        <polyline id="Stroke-13" stroke-linecap="round" stroke-linejoin="round" points="29.6949153 29.6949153 29.6949153 39.4576271 19.9322034 44.3389831"></polyline>
                        <path d="M29.6949153,39.4576271 L39.4576271,44.3389831" id="Stroke-15" stroke-linecap="round" stroke-linejoin="round"></path>
                    </g>
                </g>
            </g>
        </g>
    </g>
</svg>